…
```{r}
sf_isj08220 <- 
  df_isj08220 %>% 
    sf::st_as_sf(coords = c("longitude", "latitude"), crs = 4326)
```

```{r}
sf_isj08220
## Simple feature collection with 299 features and 2 fields
## geometry type:  POINT
## dimension:      XY
## bbox:           xmin: 140.0102 ymin: 35.95047 xmax: 140.1676 ymax: 36.22462
## epsg (SRID):    4326
## proj4string:    +proj=longlat +datum=WGS84 +no_defs
## # A tibble: 299 x 3
##    city     street_lv1              geometry
##    <chr>    <chr>                <POINT [°]>
##  1 つくば市 赤塚         (140.1232 36.04268)
##  2 つくば市 明石         (140.0537 36.18207)
##  3 つくば市 旭           (140.0725 36.11289)
##  4 つくば市 安食         (140.0163 36.16775)
##  5 つくば市 あしび野      (140.1122 35.9606)
##  6 つくば市 吾妻一丁目   (140.1129 36.08153)
##  7 つくば市 吾妻二丁目   (140.1111 36.08443)
##  8 つくば市 吾妻三丁目    (140.1109 36.0889)
##  9 つくば市 吾妻四丁目   (140.1183 36.08722)
## 10 つくば市 天久保一丁目  (140.1087 36.0919)
## # … with 289 more rows
```
…
```{r}
sf_isj08220sfh
## Simple feature collection with 299 features and 2 fields
## geometry type:  POINT
## dimension:      XY
## bbox:           xmin: 140.0102 ymin: 35.95047 xmax: 140.1676 ymax: 36.22462
## z_range:        zmin: NA zmax: NA
## m_range:        mmin: NA mmax: NA
## epsg (SRID):    4326
## proj4string:    +proj=longlat +datum=WGS84 +no_defs
## # A tibble: 299 x 3
##    city     street_lv1              geometry
##    <chr>    <chr>                <POINT [°]>
##  1 つくば市 赤塚         (140.1232 36.04268)
##  2 つくば市 明石         (140.0537 36.18207)
##  3 つくば市 旭           (140.0725 36.11289)
##  4 つくば市 安食         (140.0163 36.16775)
##  5 つくば市 あしび野      (140.1122 35.9606)
##  6 つくば市 吾妻一丁目   (140.1129 36.08153)
##  7 つくば市 吾妻二丁目   (140.1111 36.08443)
##  8 つくば市 吾妻三丁目    (140.1109 36.0889)
##  9 つくば市 吾妻四丁目   (140.1183 36.08722)
## 10 つくば市 天久保一丁目  (140.1087 36.0919)
## # … with 289 more rows
```
…
この時、ポイントの情報も失われるので、データフレームの列として残したい場合は予め列を追加する必要が生じます。


```{r}
sf_isj08220 %>% 
  dplyr::mutate(coords = purrr::map(geometry,
                                    ~ as.data.frame(sf::st_coordinates(.x)))) %>% 
  tidyr::unnest(cols = coords) %>% 
  st_drop_geometry()
## # A tibble: 299 x 4
##    city     street_lv1       X     Y
##  * <chr>    <chr>        <dbl> <dbl>
##  1 つくば市 赤塚          140.  36.0
##  2 つくば市 明石          140.  36.2
##  3 つくば市 旭            140.  36.1
##  4 つくば市 安食          140.  36.2
##  5 つくば市 あしび野      140.  36.0
##  6 つくば市 吾妻一丁目    140.  36.1
##  7 つくば市 吾妻二丁目    140.  36.1
##  8 つくば市 吾妻三丁目    140.  36.1
##  9 つくば市 吾妻四丁目    140.  36.1
## 10 つくば市 天久保一丁目  140.  36.1
## # … with 289 more rows
```
…
